Data exploration and descriptives
…
Load data

We will work with the latest COVID dataset published by the WHO as of today. We use the read_csv() to read the data. That function is the tidyverse counterpart of the previously encountered read.csv (which is a base R function). They work the same way, both read files with a .csv format. The only difference is the read_csv() creates a tibble format instead of the data.frame format. tibbles are data frames but they are slightly more processed, containing a bit more structural information about the dataset than the regular data.frame

COVID_data <- read_csv("https://raw.githubusercontent.com/owid/covid-19-data/master/public/data/owid-covid-data.csv")

Data overview

We should always start by getting an overall look at the dataset (we can print the data object, look at the dataset with View, or get some more structural information using the functions learned in the previous exercises.)

Printing a tibble object shows more information than printing a simple data.frame. It basically shows the same information as if str() and head() was also run.

COVID_data

## # A tibble: 54,819 x 49
##    iso_code continent location date       total_cases new_cases new_cases_smoot
##    <chr>    <chr>     <chr>    <date>           <dbl>     <dbl>            <dbl>
##  1 ABW      North Am Aruba    2020-03-13           2         2           NA    
##  2 ABW      North Am Aruba    2020-03-19          NA        NA            0.286
##  3 ABW      North Am Aruba    2020-03-20           4         2            0.286
##  4 ABW      North Am Aruba    2020-03-21          NA        NA            0.286
##  5 ABW      North Am Aruba    2020-03-22          NA        NA            0.286
##  6 ABW      North Am Aruba    2020-03-23          NA        NA            0.286
##  7 ABW      North Am Aruba    2020-03-24          12         8            1.43 
##  8 ABW      North Am Aruba    2020-03-25          17         5            2.14 
##  9 ABW      North Am Aruba    2020-03-26          19         2            2.43 
## 10 ABW      North Am Aruba    2020-03-27          28         9            3.43 
## #  with 54,809 more rows, and 42 more variables: total_deaths <dbl>,
## #   new_deaths <dbl>, new_deaths_smoothed <dbl>, total_cases_per_million <dbl>,
## #   new_cases_per_million <dbl>, new_cases_smoothed_per_million <dbl>,
## #   total_deaths_per_million <dbl>, new_deaths_per_million <dbl>,
## #   new_deaths_smoothed_per_million <dbl>, icu_patients <lgl>,
## #   icu_patients_per_million <lgl>, hosp_patients <lgl>,
## #   hosp_patients_per_million <lgl>, weekly_icu_admissions <lgl>,
## #   weekly_icu_admissions_per_million <lgl>, weekly_hosp_admissions <lgl>,
## #   weekly_hosp_admissions_per_million <lgl>, total_tests <lgl>,
…
